digraph G {

container -> scene
container-> hud
container -> effect
main -> container
scene -> background
scene -> ground
scene -> physics
scene -> entities

entities [label="entities"]
scene [label="scene/camera/control"]

background [shape=rect]
ground [shape=rect]
entities [shape=rect]
hud [shape=rect]
effect [shape=rect]
text [shape=rect]

//ground-> physics
//entities -> physics
physics-> ground
physics-> entities

//scene -> effect
//hud -> entities

scene -> text
hud -> text

}
