info face="Amiga Forever Pro" size=64 bold=0 italic=0 charset="ANSI" unicode=0 stretchH=100 smooth=1 aa=1 padding=0,0,0,0 spacing=1,1 outline=0
common lineHeight=64 base=48 scaleW=512 scaleH=512 pages=1 packed=0 alphaChnl=1 redChnl=0 greenChnl=0 blueChnl=0
page id=0 file="amiga_forever_0.png"
chars count=203
char id=32   x=321   y=114   width=3     height=1     xoffset=-1    yoffset=63    xadvance=42    page=0  chnl=15
char id=33   x=496   y=76    width=12    height=37    xoffset=10    yoffset=11    xadvance=32    page=0  chnl=15
char id=34   x=340   y=395   width=27    height=11    xoffset=5     yoffset=11    xadvance=37    page=0  chnl=15
char id=35   x=79    y=81    width=38    height=37    xoffset=5     yoffset=11    xadvance=48    page=0  chnl=15
char id=36   x=430   y=76    width=32    height=37    xoffset=5     yoffset=11    xadvance=42    page=0  chnl=15
char id=37   x=264   y=309   width=38    height=31    xoffset=5     yoffset=17    xadvance=48    page=0  chnl=15
char id=38   x=44    y=43    width=43    height=37    xoffset=5     yoffset=11    xadvance=53    page=0  chnl=15
char id=39   x=210   y=401   width=17    height=16    xoffset=5     yoffset=11    xadvance=26    page=0  chnl=15
char id=40   x=28    y=271   width=22    height=37    xoffset=10    yoffset=11    xadvance=42    page=0  chnl=15
char id=41   x=51    y=271   width=22    height=37    xoffset=10    yoffset=11    xadvance=42    page=0  chnl=15
char id=42   x=342   y=340   width=43    height=26    xoffset=5     yoffset=17    xadvance=53    page=0  chnl=15
char id=43   x=160   y=346   width=32    height=27    xoffset=5     yoffset=16    xadvance=42    page=0  chnl=15
char id=44   x=192   y=401   width=17    height=16    xoffset=10    yoffset=37    xadvance=42    page=0  chnl=15
char id=45   x=0     y=432   width=32    height=5     xoffset=5     yoffset=27    xadvance=42    page=0  chnl=15
char id=46   x=368   y=394   width=12    height=11    xoffset=15    yoffset=37    xadvance=42    page=0  chnl=15
char id=47   x=303   y=0     width=43    height=37    xoffset=5     yoffset=11    xadvance=53    page=0  chnl=15
char id=48   x=165   y=119   width=32    height=37    xoffset=5     yoffset=11    xadvance=42    page=0  chnl=15
char id=49   x=74    y=271   width=22    height=37    xoffset=5     yoffset=11    xadvance=32    page=0  chnl=15
char id=50   x=479   y=0     width=32    height=37    xoffset=5     yoffset=11    xadvance=42    page=0  chnl=15
char id=51   x=264   y=119   width=32    height=37    xoffset=5     yoffset=11    xadvance=42    page=0  chnl=15
char id=52   x=196   y=81    width=38    height=37    xoffset=5     yoffset=11    xadvance=48    page=0  chnl=15
char id=53   x=297   y=119   width=32    height=37    xoffset=5     yoffset=11    xadvance=42    page=0  chnl=15
char id=54   x=330   y=114   width=32    height=37    xoffset=5     yoffset=11    xadvance=42    page=0  chnl=15
char id=55   x=363   y=114   width=32    height=37    xoffset=5     yoffset=11    xadvance=42    page=0  chnl=15
char id=56   x=396   y=114   width=32    height=37    xoffset=5     yoffset=11    xadvance=42    page=0  chnl=15
char id=57   x=231   y=119   width=32    height=37    xoffset=5     yoffset=11    xadvance=42    page=0  chnl=15
char id=58   x=495   y=228   width=12    height=32    xoffset=10    yoffset=16    xadvance=32    page=0  chnl=15
char id=59   x=235   y=271   width=17    height=37    xoffset=10    yoffset=16    xadvance=37    page=0  chnl=15
char id=60   x=441   y=362   width=32    height=26    xoffset=5     yoffset=17    xadvance=42    page=0  chnl=15
char id=61   x=246   y=401   width=32    height=15    xoffset=5     yoffset=22    xadvance=42    page=0  chnl=15
char id=62   x=408   y=362   width=32    height=26    xoffset=5     yoffset=17    xadvance=42    page=0  chnl=15
char id=63   x=99    y=157   width=32    height=37    xoffset=5     yoffset=11    xadvance=42    page=0  chnl=15
char id=64   x=440   y=38    width=39    height=37    xoffset=4     yoffset=11    xadvance=48    page=0  chnl=15
char id=65   x=132   y=157   width=32    height=37    xoffset=5     yoffset=11    xadvance=42    page=0  chnl=15
char id=66   x=165   y=157   width=32    height=37    xoffset=5     yoffset=11    xadvance=42    page=0  chnl=15
char id=67   x=198   y=157   width=32    height=37    xoffset=5     yoffset=11    xadvance=42    page=0  chnl=15
char id=68   x=231   y=157   width=32    height=37    xoffset=5     yoffset=11    xadvance=42    page=0  chnl=15
char id=69   x=264   y=157   width=32    height=37    xoffset=5     yoffset=11    xadvance=42    page=0  chnl=15
char id=70   x=297   y=157   width=32    height=37    xoffset=5     yoffset=11    xadvance=42    page=0  chnl=15
char id=71   x=198   y=309   width=32    height=36    xoffset=5     yoffset=12    xadvance=42    page=0  chnl=15
char id=72   x=264   y=195   width=32    height=37    xoffset=5     yoffset=11    xadvance=42    page=0  chnl=15
char id=73   x=166   y=271   width=22    height=37    xoffset=5     yoffset=11    xadvance=32    page=0  chnl=15
char id=74   x=363   y=228   width=32    height=37    xoffset=5     yoffset=11    xadvance=42    page=0  chnl=15
char id=75   x=235   y=81    width=38    height=37    xoffset=5     yoffset=11    xadvance=48    page=0  chnl=15
char id=76   x=297   y=233   width=32    height=37    xoffset=5     yoffset=11    xadvance=42    page=0  chnl=15
char id=77   x=0     y=81    width=39    height=37    xoffset=4     yoffset=11    xadvance=48    page=0  chnl=15
char id=78   x=274   y=81    width=38    height=37    xoffset=5     yoffset=11    xadvance=48    page=0  chnl=15
char id=79   x=264   y=233   width=32    height=37    xoffset=5     yoffset=11    xadvance=42    page=0  chnl=15
char id=80   x=231   y=233   width=32    height=37    xoffset=5     yoffset=11    xadvance=42    page=0  chnl=15
char id=81   x=313   y=76    width=38    height=37    xoffset=5     yoffset=11    xadvance=48    page=0  chnl=15
char id=82   x=429   y=114   width=32    height=37    xoffset=5     yoffset=11    xadvance=42    page=0  chnl=15
char id=83   x=231   y=309   width=32    height=36    xoffset=5     yoffset=12    xadvance=42    page=0  chnl=15
char id=84   x=33    y=233   width=32    height=37    xoffset=5     yoffset=11    xadvance=42    page=0  chnl=15
char id=85   x=297   y=195   width=32    height=37    xoffset=5     yoffset=11    xadvance=42    page=0  chnl=15
char id=86   x=198   y=195   width=32    height=37    xoffset=5     yoffset=11    xadvance=42    page=0  chnl=15
char id=87   x=352   y=76    width=38    height=37    xoffset=5     yoffset=11    xadvance=48    page=0  chnl=15
char id=88   x=0     y=43    width=43    height=37    xoffset=5     yoffset=11    xadvance=53    page=0  chnl=15
char id=89   x=132   y=43    width=43    height=37    xoffset=5     yoffset=11    xadvance=53    page=0  chnl=15
char id=90   x=391   y=76    width=38    height=37    xoffset=5     yoffset=11    xadvance=48    page=0  chnl=15
char id=91   x=120   y=271   width=22    height=37    xoffset=5     yoffset=11    xadvance=32    page=0  chnl=15
char id=92   x=435   y=0     width=43    height=37    xoffset=5     yoffset=11    xadvance=53    page=0  chnl=15
char id=93   x=189   y=271   width=22    height=37    xoffset=5     yoffset=11    xadvance=32    page=0  chnl=15
char id=94   x=130   y=405   width=38    height=21    xoffset=5     yoffset=11    xadvance=48    page=0  chnl=15
char id=95   x=456   y=389   width=38    height=5     xoffset=5     yoffset=48    xadvance=48    page=0  chnl=15
char id=96   x=228   y=401   width=17    height=16    xoffset=5     yoffset=11    xadvance=26    page=0  chnl=15
char id=97   x=375   y=367   width=32    height=26    xoffset=5     yoffset=22    xadvance=42    page=0  chnl=15
char id=98   x=429   y=152   width=32    height=37    xoffset=5     yoffset=11    xadvance=42    page=0  chnl=15
char id=99   x=28    y=405   width=27    height=26    xoffset=5     yoffset=22    xadvance=37    page=0  chnl=15
char id=100  x=0     y=195   width=32    height=37    xoffset=5     yoffset=11    xadvance=42    page=0  chnl=15
char id=101  x=342   y=367   width=32    height=26    xoffset=5     yoffset=22    xadvance=42    page=0  chnl=15
char id=102  x=480   y=38    width=27    height=37    xoffset=5     yoffset=11    xadvance=37    page=0  chnl=15
char id=103  x=474   y=303   width=32    height=31    xoffset=5     yoffset=22    xadvance=42    page=0  chnl=15
char id=104  x=132   y=195   width=32    height=37    xoffset=5     yoffset=11    xadvance=42    page=0  chnl=15
char id=105  x=253   y=271   width=17    height=37    xoffset=5     yoffset=11    xadvance=26    page=0  chnl=15
char id=106  x=271   y=0     width=27    height=42    xoffset=5     yoffset=11    xadvance=37    page=0  chnl=15
char id=107  x=231   y=195   width=32    height=37    xoffset=5     yoffset=11    xadvance=42    page=0  chnl=15
char id=108  x=271   y=271   width=17    height=37    xoffset=5     yoffset=11    xadvance=26    page=0  chnl=15
char id=109  x=470   y=335   width=39    height=26    xoffset=4     yoffset=22    xadvance=48    page=0  chnl=15
char id=110  x=309   y=368   width=32    height=26    xoffset=5     yoffset=22    xadvance=42    page=0  chnl=15
char id=111  x=276   y=373   width=32    height=26    xoffset=5     yoffset=22    xadvance=42    page=0  chnl=15
char id=112  x=441   y=303   width=32    height=31    xoffset=5     yoffset=22    xadvance=42    page=0  chnl=15
char id=113  x=408   y=303   width=32    height=31    xoffset=5     yoffset=22    xadvance=42    page=0  chnl=15
char id=114  x=243   y=374   width=32    height=26    xoffset=5     yoffset=22    xadvance=42    page=0  chnl=15
char id=115  x=78    y=378   width=32    height=26    xoffset=5     yoffset=22    xadvance=42    page=0  chnl=15
char id=116  x=0     y=271   width=27    height=37    xoffset=5     yoffset=11    xadvance=37    page=0  chnl=15
char id=117  x=210   y=374   width=32    height=26    xoffset=5     yoffset=22    xadvance=42    page=0  chnl=15
char id=118  x=177   y=374   width=32    height=26    xoffset=5     yoffset=22    xadvance=42    page=0  chnl=15
char id=119  x=430   y=335   width=39    height=26    xoffset=4     yoffset=22    xadvance=48    page=0  chnl=15
char id=120  x=0     y=378   width=38    height=26    xoffset=5     yoffset=22    xadvance=48    page=0  chnl=15
char id=121  x=0     y=346   width=32    height=31    xoffset=5     yoffset=22    xadvance=42    page=0  chnl=15
char id=122  x=144   y=378   width=32    height=26    xoffset=5     yoffset=22    xadvance=42    page=0  chnl=15
char id=123  x=165   y=233   width=32    height=37    xoffset=5     yoffset=11    xadvance=42    page=0  chnl=15
char id=124  x=495   y=114   width=11    height=37    xoffset=5     yoffset=11    xadvance=21    page=0  chnl=15
char id=125  x=198   y=233   width=32    height=37    xoffset=5     yoffset=11    xadvance=42    page=0  chnl=15
char id=126  x=381   y=394   width=44    height=10    xoffset=-1    yoffset=12    xadvance=42    page=0  chnl=15
char id=130  x=299   y=0     width=3     height=42    xoffset=-1    yoffset=11    xadvance=21    page=0  chnl=15
char id=131  x=313   y=114   width=3     height=1     xoffset=-1    yoffset=63    xadvance=21    page=0  chnl=15
char id=132  x=317   y=114   width=3     height=1     xoffset=-1    yoffset=63    xadvance=21    page=0  chnl=15
char id=133  x=317   y=116   width=3     height=1     xoffset=-1    yoffset=63    xadvance=21    page=0  chnl=15
char id=134  x=325   y=114   width=3     height=1     xoffset=-1    yoffset=63    xadvance=21    page=0  chnl=15
char id=135  x=509   y=41    width=2     height=2     xoffset=0     yoffset=46    xadvance=21    page=0  chnl=15
char id=136  x=508   y=38    width=3     height=2     xoffset=-1    yoffset=46    xadvance=21    page=0  chnl=15
char id=137  x=308   y=78    width=3     height=1     xoffset=-1    yoffset=63    xadvance=21    page=0  chnl=15
char id=138  x=507   y=114   width=3     height=1     xoffset=-1    yoffset=63    xadvance=21    page=0  chnl=15
char id=139  x=321   y=116   width=3     height=1     xoffset=-1    yoffset=63    xadvance=21    page=0  chnl=15
char id=154  x=303   y=38    width=3     height=1     xoffset=-1    yoffset=63    xadvance=21    page=0  chnl=15
char id=155  x=303   y=40    width=3     height=1     xoffset=-1    yoffset=63    xadvance=21    page=0  chnl=15
char id=159  x=308   y=76    width=3     height=1     xoffset=-1    yoffset=63    xadvance=21    page=0  chnl=15
char id=161  x=495   y=190   width=11    height=37    xoffset=5     yoffset=11    xadvance=21    page=0  chnl=15
char id=162  x=193   y=346   width=32    height=27    xoffset=5     yoffset=16    xadvance=42    page=0  chnl=15
char id=163  x=33    y=309   width=32    height=36    xoffset=5     yoffset=12    xadvance=42    page=0  chnl=15
char id=164  x=474   y=362   width=32    height=26    xoffset=5     yoffset=11    xadvance=42    page=0  chnl=15
char id=165  x=352   y=38    width=43    height=37    xoffset=5     yoffset=11    xadvance=53    page=0  chnl=15
char id=166  x=495   y=152   width=11    height=37    xoffset=5     yoffset=11    xadvance=21    page=0  chnl=15
char id=167  x=330   y=228   width=32    height=37    xoffset=5     yoffset=11    xadvance=42    page=0  chnl=15
char id=168  x=279   y=400   width=32    height=11    xoffset=5     yoffset=11    xadvance=42    page=0  chnl=15
char id=169  x=391   y=0     width=43    height=37    xoffset=5     yoffset=11    xadvance=53    page=0  chnl=15
char id=170  x=56    y=405   width=27    height=26    xoffset=5     yoffset=11    xadvance=37    page=0  chnl=15
char id=171  x=386   y=335   width=43    height=26    xoffset=5     yoffset=17    xadvance=53    page=0  chnl=15
char id=172  x=312   y=395   width=27    height=11    xoffset=5     yoffset=11    xadvance=37    page=0  chnl=15
char id=173  x=33    y=432   width=32    height=5     xoffset=5     yoffset=27    xadvance=42    page=0  chnl=15
char id=174  x=0     y=0     width=43    height=42    xoffset=5     yoffset=11    xadvance=53    page=0  chnl=15
char id=175  x=66    y=432   width=32    height=5     xoffset=5     yoffset=11    xadvance=42    page=0  chnl=15
char id=176  x=313   y=116   width=3     height=1     xoffset=-1    yoffset=63    xadvance=21    page=0  chnl=15
char id=177  x=132   y=233   width=32    height=37    xoffset=5     yoffset=11    xadvance=42    page=0  chnl=15
char id=178  x=84    y=405   width=27    height=26    xoffset=5     yoffset=11    xadvance=37    page=0  chnl=15
char id=179  x=226   y=346   width=27    height=27    xoffset=5     yoffset=11    xadvance=37    page=0  chnl=15
char id=180  x=169   y=405   width=22    height=16    xoffset=5     yoffset=11    xadvance=32    page=0  chnl=15
char id=181  x=303   y=309   width=38    height=31    xoffset=5     yoffset=22    xadvance=48    page=0  chnl=15
char id=182  x=99    y=233   width=32    height=37    xoffset=5     yoffset=11    xadvance=42    page=0  chnl=15
char id=183  x=444   y=389   width=11    height=10    xoffset=5     yoffset=22    xadvance=21    page=0  chnl=15
char id=184  x=426   y=389   width=17    height=10    xoffset=5     yoffset=43    xadvance=26    page=0  chnl=15
char id=185  x=112   y=405   width=17    height=26    xoffset=5     yoffset=11    xadvance=26    page=0  chnl=15
char id=186  x=0     y=405   width=27    height=26    xoffset=5     yoffset=11    xadvance=37    page=0  chnl=15
char id=187  x=298   y=341   width=43    height=26    xoffset=5     yoffset=17    xadvance=53    page=0  chnl=15
char id=188  x=44    y=0     width=43    height=42    xoffset=5     yoffset=11    xadvance=53    page=0  chnl=15
char id=189  x=132   y=0     width=39    height=42    xoffset=4     yoffset=11    xadvance=48    page=0  chnl=15
char id=190  x=88    y=0     width=43    height=42    xoffset=5     yoffset=11    xadvance=53    page=0  chnl=15
char id=191  x=0     y=233   width=32    height=37    xoffset=5     yoffset=11    xadvance=42    page=0  chnl=15
char id=192  x=462   y=190   width=32    height=37    xoffset=5     yoffset=11    xadvance=42    page=0  chnl=15
char id=193  x=429   y=190   width=32    height=37    xoffset=5     yoffset=11    xadvance=42    page=0  chnl=15
char id=194  x=396   y=190   width=32    height=37    xoffset=5     yoffset=11    xadvance=42    page=0  chnl=15
char id=195  x=307   y=271   width=43    height=36    xoffset=5     yoffset=12    xadvance=53    page=0  chnl=15
char id=196  x=363   y=190   width=32    height=37    xoffset=5     yoffset=11    xadvance=42    page=0  chnl=15
char id=197  x=330   y=190   width=32    height=37    xoffset=5     yoffset=11    xadvance=42    page=0  chnl=15
char id=198  x=308   y=38    width=43    height=37    xoffset=5     yoffset=11    xadvance=53    page=0  chnl=15
char id=199  x=172   y=0     width=32    height=42    xoffset=5     yoffset=11    xadvance=42    page=0  chnl=15
char id=200  x=33    y=195   width=32    height=37    xoffset=5     yoffset=11    xadvance=42    page=0  chnl=15
char id=201  x=462   y=152   width=32    height=37    xoffset=5     yoffset=11    xadvance=42    page=0  chnl=15
char id=202  x=396   y=152   width=32    height=37    xoffset=5     yoffset=11    xadvance=42    page=0  chnl=15
char id=203  x=363   y=152   width=32    height=37    xoffset=5     yoffset=11    xadvance=42    page=0  chnl=15
char id=204  x=97    y=271   width=22    height=37    xoffset=5     yoffset=11    xadvance=32    page=0  chnl=15
char id=205  x=143   y=271   width=22    height=37    xoffset=5     yoffset=11    xadvance=32    page=0  chnl=15
char id=206  x=99    y=309   width=32    height=36    xoffset=5     yoffset=12    xadvance=42    page=0  chnl=15
char id=207  x=66    y=233   width=32    height=37    xoffset=5     yoffset=11    xadvance=42    page=0  chnl=15
char id=208  x=40    y=81    width=38    height=37    xoffset=5     yoffset=11    xadvance=48    page=0  chnl=15
char id=209  x=88    y=43    width=43    height=37    xoffset=5     yoffset=11    xadvance=53    page=0  chnl=15
char id=210  x=33    y=157   width=32    height=37    xoffset=5     yoffset=11    xadvance=42    page=0  chnl=15
char id=211  x=462   y=114   width=32    height=37    xoffset=5     yoffset=11    xadvance=42    page=0  chnl=15
char id=212  x=132   y=309   width=32    height=36    xoffset=5     yoffset=12    xadvance=42    page=0  chnl=15
char id=213  x=264   y=43    width=43    height=37    xoffset=5     yoffset=11    xadvance=53    page=0  chnl=15
char id=214  x=220   y=43    width=43    height=37    xoffset=5     yoffset=11    xadvance=53    page=0  chnl=15
char id=215  x=39    y=378   width=38    height=26    xoffset=5     yoffset=17    xadvance=48    page=0  chnl=15
char id=216  x=176   y=43    width=43    height=37    xoffset=5     yoffset=11    xadvance=53    page=0  chnl=15
char id=217  x=132   y=119   width=32    height=37    xoffset=5     yoffset=11    xadvance=42    page=0  chnl=15
char id=218  x=99    y=119   width=32    height=37    xoffset=5     yoffset=11    xadvance=42    page=0  chnl=15
char id=219  x=0     y=119   width=32    height=37    xoffset=5     yoffset=11    xadvance=42    page=0  chnl=15
char id=220  x=463   y=76    width=32    height=37    xoffset=5     yoffset=11    xadvance=42    page=0  chnl=15
char id=221  x=347   y=0     width=43    height=37    xoffset=5     yoffset=11    xadvance=53    page=0  chnl=15
char id=222  x=118   y=81    width=38    height=37    xoffset=5     yoffset=11    xadvance=48    page=0  chnl=15
char id=223  x=238   y=0     width=32    height=42    xoffset=5     yoffset=11    xadvance=42    page=0  chnl=15
char id=224  x=396   y=228   width=32    height=37    xoffset=5     yoffset=11    xadvance=42    page=0  chnl=15
char id=225  x=429   y=228   width=32    height=37    xoffset=5     yoffset=11    xadvance=42    page=0  chnl=15
char id=226  x=66    y=309   width=32    height=36    xoffset=5     yoffset=12    xadvance=42    page=0  chnl=15
char id=227  x=351   y=266   width=43    height=36    xoffset=5     yoffset=12    xadvance=53    page=0  chnl=15
char id=228  x=462   y=228   width=32    height=37    xoffset=5     yoffset=11    xadvance=42    page=0  chnl=15
char id=229  x=33    y=119   width=32    height=37    xoffset=5     yoffset=11    xadvance=42    page=0  chnl=15
char id=230  x=254   y=346   width=43    height=26    xoffset=5     yoffset=22    xadvance=53    page=0  chnl=15
char id=231  x=132   y=346   width=27    height=31    xoffset=5     yoffset=22    xadvance=37    page=0  chnl=15
char id=232  x=66    y=119   width=32    height=37    xoffset=5     yoffset=11    xadvance=42    page=0  chnl=15
char id=233  x=198   y=119   width=32    height=37    xoffset=5     yoffset=11    xadvance=42    page=0  chnl=15
char id=234  x=0     y=157   width=32    height=37    xoffset=5     yoffset=11    xadvance=42    page=0  chnl=15
char id=235  x=66    y=157   width=32    height=37    xoffset=5     yoffset=11    xadvance=42    page=0  chnl=15
char id=236  x=212   y=271   width=22    height=37    xoffset=5     yoffset=11    xadvance=32    page=0  chnl=15
char id=237  x=289   y=271   width=17    height=37    xoffset=5     yoffset=11    xadvance=26    page=0  chnl=15
char id=238  x=66    y=195   width=32    height=37    xoffset=5     yoffset=11    xadvance=42    page=0  chnl=15
char id=239  x=342   y=308   width=32    height=31    xoffset=5     yoffset=17    xadvance=42    page=0  chnl=15
char id=240  x=157   y=81    width=38    height=37    xoffset=5     yoffset=11    xadvance=48    page=0  chnl=15
char id=241  x=395   y=266   width=43    height=36    xoffset=5     yoffset=12    xadvance=53    page=0  chnl=15
char id=242  x=99    y=346   width=32    height=31    xoffset=5     yoffset=17    xadvance=42    page=0  chnl=15
char id=243  x=66    y=346   width=32    height=31    xoffset=5     yoffset=17    xadvance=42    page=0  chnl=15
char id=244  x=0     y=309   width=32    height=36    xoffset=5     yoffset=12    xadvance=42    page=0  chnl=15
char id=245  x=396   y=38    width=43    height=37    xoffset=5     yoffset=11    xadvance=53    page=0  chnl=15
char id=246  x=375   y=303   width=32    height=31    xoffset=5     yoffset=17    xadvance=42    page=0  chnl=15
char id=247  x=111   y=378   width=32    height=26    xoffset=5     yoffset=17    xadvance=42    page=0  chnl=15
char id=248  x=439   y=266   width=39    height=36    xoffset=4     yoffset=17    xadvance=48    page=0  chnl=15
char id=249  x=99    y=195   width=32    height=37    xoffset=5     yoffset=11    xadvance=42    page=0  chnl=15
char id=250  x=165   y=195   width=32    height=37    xoffset=5     yoffset=11    xadvance=42    page=0  chnl=15
char id=251  x=165   y=309   width=32    height=36    xoffset=5     yoffset=12    xadvance=42    page=0  chnl=15
char id=252  x=33    y=346   width=32    height=31    xoffset=5     yoffset=17    xadvance=42    page=0  chnl=15
char id=253  x=205   y=0     width=32    height=42    xoffset=5     yoffset=11    xadvance=42    page=0  chnl=15
char id=254  x=330   y=152   width=32    height=37    xoffset=5     yoffset=16    xadvance=42    page=0  chnl=15
char id=255  x=479   y=266   width=32    height=36    xoffset=5     yoffset=17    xadvance=42    page=0  chnl=15
