info face="Orbitron" size=64 bold=0 italic=0 charset="ANSI" unicode=0 stretchH=100 smooth=1 aa=1 padding=0,0,0,0 spacing=1,1 outline=0
common lineHeight=64 base=52 scaleW=512 scaleH=512 pages=1 packed=0 alphaChnl=1 redChnl=0 greenChnl=0 blueChnl=0
page id=0 file="orbitron_512_0.png"
chars count=145
char id=32   x=298   y=145   width=3     height=1     xoffset=-1    yoffset=63    xadvance=14    page=0  chnl=15
char id=33   x=456   y=256   width=6     height=37    xoffset=2     yoffset=15    xadvance=11    page=0  chnl=15
char id=34   x=130   y=337   width=14    height=8     xoffset=2     yoffset=15    xadvance=19    page=0  chnl=15
char id=35   x=120   y=190   width=39    height=37    xoffset=1     yoffset=15    xadvance=41    page=0  chnl=15
char id=36   x=114   y=53    width=39    height=49    xoffset=1     yoffset=9     xadvance=40    page=0  chnl=15
char id=37   x=316   y=145   width=46    height=37    xoffset=2     yoffset=15    xadvance=49    page=0  chnl=15
char id=38   x=363   y=142   width=45    height=37    xoffset=2     yoffset=15    xadvance=48    page=0  chnl=15
char id=39   x=161   y=337   width=6     height=8     xoffset=2     yoffset=15    xadvance=11    page=0  chnl=15
char id=40   x=416   y=259   width=9     height=37    xoffset=2     yoffset=15    xadvance=14    page=0  chnl=15
char id=41   x=426   y=259   width=9     height=37    xoffset=2     yoffset=15    xadvance=14    page=0  chnl=15
char id=42   x=47    y=337   width=23    height=21    xoffset=1     yoffset=15    xadvance=25    page=0  chnl=15
char id=43   x=71    y=337   width=22    height=20    xoffset=0     yoffset=27    xadvance=22    page=0  chnl=15
char id=44   x=123   y=337   width=6     height=12    xoffset=2     yoffset=47    xadvance=10    page=0  chnl=15
char id=45   x=228   y=335   width=22    height=5     xoffset=2     yoffset=34    xadvance=26    page=0  chnl=15
char id=46   x=497   y=171   width=6     height=5     xoffset=2     yoffset=47    xadvance=11    page=0  chnl=15
char id=47   x=358   y=259   width=27    height=37    xoffset=0     yoffset=15    xadvance=27    page=0  chnl=15
char id=48   x=40    y=192   width=39    height=37    xoffset=2     yoffset=15    xadvance=43    page=0  chnl=15
char id=49   x=386   y=259   width=17    height=37    xoffset=-1    yoffset=15    xadvance=20    page=0  chnl=15
char id=50   x=0     y=192   width=39    height=37    xoffset=2     yoffset=15    xadvance=42    page=0  chnl=15
char id=51   x=200   y=187   width=39    height=37    xoffset=2     yoffset=15    xadvance=42    page=0  chnl=15
char id=52   x=77    y=268   width=37    height=37    xoffset=0     yoffset=15    xadvance=37    page=0  chnl=15
char id=53   x=280   y=185   width=39    height=37    xoffset=2     yoffset=15    xadvance=42    page=0  chnl=15
char id=54   x=320   y=183   width=39    height=37    xoffset=2     yoffset=15    xadvance=42    page=0  chnl=15
char id=55   x=295   y=262   width=33    height=37    xoffset=-1    yoffset=15    xadvance=34    page=0  chnl=15
char id=56   x=80    y=192   width=39    height=37    xoffset=2     yoffset=15    xadvance=43    page=0  chnl=15
char id=57   x=117   y=230   width=38    height=37    xoffset=2     yoffset=15    xadvance=42    page=0  chnl=15
char id=58   x=484   y=287   width=6     height=30    xoffset=2     yoffset=22    xadvance=11    page=0  chnl=15
char id=59   x=463   y=256   width=6     height=37    xoffset=2     yoffset=22    xadvance=10    page=0  chnl=15
char id=60   x=0     y=337   width=23    height=29    xoffset=-1    yoffset=22    xadvance=24    page=0  chnl=15
char id=61   x=94    y=337   width=28    height=15    xoffset=2     yoffset=30    xadvance=33    page=0  chnl=15
char id=62   x=24    y=337   width=22    height=28    xoffset=2     yoffset=23    xadvance=24    page=0  chnl=15
char id=63   x=260   y=263   width=34    height=37    xoffset=1     yoffset=15    xadvance=35    page=0  chnl=15
char id=64   x=240   y=186   width=39    height=37    xoffset=2     yoffset=15    xadvance=42    page=0  chnl=15
char id=65   x=156   y=228   width=38    height=37    xoffset=2     yoffset=15    xadvance=43    page=0  chnl=15
char id=66   x=234   y=225   width=38    height=37    xoffset=2     yoffset=15    xadvance=42    page=0  chnl=15
char id=67   x=273   y=224   width=38    height=37    xoffset=2     yoffset=15    xadvance=42    page=0  chnl=15
char id=68   x=195   y=225   width=38    height=37    xoffset=2     yoffset=15    xadvance=43    page=0  chnl=15
char id=69   x=188   y=266   width=35    height=37    xoffset=2     yoffset=15    xadvance=39    page=0  chnl=15
char id=70   x=224   y=263   width=35    height=37    xoffset=2     yoffset=15    xadvance=37    page=0  chnl=15
char id=71   x=312   y=223   width=38    height=37    xoffset=2     yoffset=15    xadvance=42    page=0  chnl=15
char id=72   x=360   y=183   width=39    height=37    xoffset=2     yoffset=15    xadvance=43    page=0  chnl=15
char id=73   x=470   y=256   width=6     height=37    xoffset=2     yoffset=15    xadvance=11    page=0  chnl=15
char id=74   x=400   y=180   width=39    height=37    xoffset=-1    yoffset=15    xadvance=40    page=0  chnl=15
char id=75   x=115   y=268   width=36    height=37    xoffset=2     yoffset=15    xadvance=41    page=0  chnl=15
char id=76   x=351   y=221   width=38    height=37    xoffset=2     yoffset=15    xadvance=40    page=0  chnl=15
char id=77   x=453   y=139   width=43    height=37    xoffset=2     yoffset=15    xadvance=47    page=0  chnl=15
char id=78   x=429   y=218   width=38    height=37    xoffset=2     yoffset=15    xadvance=42    page=0  chnl=15
char id=79   x=390   y=221   width=38    height=37    xoffset=2     yoffset=15    xadvance=42    page=0  chnl=15
char id=80   x=468   y=218   width=38    height=37    xoffset=2     yoffset=15    xadvance=40    page=0  chnl=15
char id=81   x=409   y=142   width=43    height=37    xoffset=2     yoffset=15    xadvance=45    page=0  chnl=15
char id=82   x=0     y=268   width=38    height=37    xoffset=2     yoffset=15    xadvance=42    page=0  chnl=15
char id=83   x=440   y=180   width=38    height=37    xoffset=2     yoffset=15    xadvance=42    page=0  chnl=15
char id=84   x=39    y=230   width=38    height=37    xoffset=0     yoffset=15    xadvance=39    page=0  chnl=15
char id=85   x=78    y=230   width=38    height=37    xoffset=2     yoffset=15    xadvance=42    page=0  chnl=15
char id=86   x=266   y=147   width=49    height=37    xoffset=1     yoffset=15    xadvance=51    page=0  chnl=15
char id=87   x=207   y=148   width=58    height=37    xoffset=1     yoffset=15    xadvance=60    page=0  chnl=15
char id=88   x=39    y=268   width=37    height=37    xoffset=2     yoffset=15    xadvance=41    page=0  chnl=15
char id=89   x=160   y=187   width=39    height=37    xoffset=0     yoffset=15    xadvance=41    page=0  chnl=15
char id=90   x=0     y=230   width=38    height=37    xoffset=2     yoffset=15    xadvance=42    page=0  chnl=15
char id=91   x=436   y=256   width=9     height=37    xoffset=2     yoffset=15    xadvance=14    page=0  chnl=15
char id=92   x=329   y=261   width=28    height=37    xoffset=-1    yoffset=15    xadvance=27    page=0  chnl=15
char id=93   x=446   y=256   width=9     height=37    xoffset=2     yoffset=15    xadvance=14    page=0  chnl=15
char id=95   x=188   y=337   width=39    height=5     xoffset=2     yoffset=52    xadvance=42    page=0  chnl=15
char id=96   x=145   y=337   width=7     height=8     xoffset=1     yoffset=0     xadvance=11    page=0  chnl=15
char id=97   x=200   y=304   width=32    height=30    xoffset=2     yoffset=22    xadvance=35    page=0  chnl=15
char id=98   x=0     y=151   width=32    height=40    xoffset=2     yoffset=12    xadvance=34    page=0  chnl=15
char id=99   x=331   y=299   width=31    height=30    xoffset=2     yoffset=22    xadvance=35    page=0  chnl=15
char id=100  x=463   y=98    width=32    height=40    xoffset=0     yoffset=12    xadvance=34    page=0  chnl=15
char id=101  x=299   y=300   width=31    height=30    xoffset=2     yoffset=22    xadvance=35    page=0  chnl=15
char id=102  x=84    y=151   width=18    height=40    xoffset=2     yoffset=12    xadvance=21    page=0  chnl=15
char id=103  x=364   y=99    width=32    height=42    xoffset=1     yoffset=22    xadvance=35    page=0  chnl=15
char id=104  x=430   y=98    width=32    height=40    xoffset=2     yoffset=12    xadvance=34    page=0  chnl=15
char id=105  x=496   y=92    width=6     height=40    xoffset=2     yoffset=12    xadvance=11    page=0  chnl=15
char id=106  x=268   y=0     width=20    height=52    xoffset=-10   yoffset=12    xadvance=12    page=0  chnl=15
char id=107  x=33    y=151   width=31    height=40    xoffset=2     yoffset=12    xadvance=33    page=0  chnl=15
char id=108  x=495   y=51    width=13    height=40    xoffset=2     yoffset=12    xadvance=15    page=0  chnl=15
char id=109  x=112   y=306   width=47    height=30    xoffset=2     yoffset=22    xadvance=50    page=0  chnl=15
char id=110  x=477   y=256   width=32    height=30    xoffset=2     yoffset=22    xadvance=36    page=0  chnl=15
char id=111  x=363   y=297   width=31    height=30    xoffset=2     yoffset=22    xadvance=35    page=0  chnl=15
char id=112  x=397   y=99    width=32    height=42    xoffset=2     yoffset=22    xadvance=34    page=0  chnl=15
char id=113  x=331   y=99    width=32    height=42    xoffset=0     yoffset=22    xadvance=34    page=0  chnl=15
char id=114  x=459   y=294   width=24    height=30    xoffset=2     yoffset=22    xadvance=26    page=0  chnl=15
char id=115  x=427   y=297   width=31    height=30    xoffset=2     yoffset=22    xadvance=35    page=0  chnl=15
char id=116  x=65    y=151   width=18    height=40    xoffset=2     yoffset=12    xadvance=21    page=0  chnl=15
char id=117  x=266   y=301   width=32    height=30    xoffset=2     yoffset=22    xadvance=35    page=0  chnl=15
char id=118  x=160   y=306   width=39    height=30    xoffset=0     yoffset=22    xadvance=40    page=0  chnl=15
char id=119  x=58    y=306   width=53    height=30    xoffset=1     yoffset=22    xadvance=55    page=0  chnl=15
char id=120  x=395   y=297   width=31    height=30    xoffset=2     yoffset=22    xadvance=35    page=0  chnl=15
char id=121  x=298   y=102   width=32    height=42    xoffset=1     yoffset=22    xadvance=35    page=0  chnl=15
char id=122  x=233   y=301   width=32    height=30    xoffset=2     yoffset=22    xadvance=36    page=0  chnl=15
char id=123  x=497   y=133   width=12    height=37    xoffset=0     yoffset=15    xadvance=15    page=0  chnl=15
char id=124  x=284   y=53    width=6     height=49    xoffset=2     yoffset=9     xadvance=11    page=0  chnl=15
char id=125  x=404   y=259   width=11    height=37    xoffset=2     yoffset=15    xadvance=15    page=0  chnl=15
char id=126  x=168   y=337   width=19    height=6     xoffset=0     yoffset=34    xadvance=21    page=0  chnl=15
char id=133  x=302   y=145   width=3     height=1     xoffset=-1    yoffset=63    xadvance=0     page=0  chnl=15
char id=145  x=509   y=51    width=1     height=8     xoffset=1     yoffset=19    xadvance=0     page=0  chnl=15
char id=146  x=306   y=145   width=3     height=1     xoffset=-1    yoffset=63    xadvance=0     page=0  chnl=15
char id=147  x=310   y=145   width=3     height=1     xoffset=-1    yoffset=63    xadvance=0     page=0  chnl=15
char id=148  x=503   y=131   width=3     height=1     xoffset=-1    yoffset=63    xadvance=0     page=0  chnl=15
char id=161  x=503   y=92    width=6     height=38    xoffset=2     yoffset=14    xadvance=11    page=0  chnl=15
char id=162  x=266   y=103   width=31    height=43    xoffset=1     yoffset=15    xadvance=32    page=0  chnl=15
char id=163  x=152   y=268   width=35    height=37    xoffset=1     yoffset=15    xadvance=37    page=0  chnl=15
char id=168  x=251   y=332   width=15    height=5     xoffset=2     yoffset=3     xadvance=20    page=0  chnl=15
char id=176  x=491   y=287   width=18    height=18    xoffset=2     yoffset=14    xadvance=22    page=0  chnl=15
char id=180  x=153   y=337   width=7     height=8     xoffset=1     yoffset=0     xadvance=11    page=0  chnl=15
char id=191  x=103   y=150   width=34    height=39    xoffset=0     yoffset=14    xadvance=34    page=0  chnl=15
char id=194  x=461   y=0     width=38    height=50    xoffset=2     yoffset=2     xadvance=43    page=0  chnl=15
char id=195  x=344   y=0     width=38    height=51    xoffset=2     yoffset=1     xadvance=43    page=0  chnl=15
char id=196  x=291   y=53    width=38    height=48    xoffset=2     yoffset=4     xadvance=43    page=0  chnl=15
char id=197  x=0     y=53    width=38    height=50    xoffset=2     yoffset=2     xadvance=43    page=0  chnl=15
char id=198  x=138   y=149   width=68    height=37    xoffset=2     yoffset=15    xadvance=70    page=0  chnl=15
char id=199  x=194   y=103   width=38    height=44    xoffset=2     yoffset=15    xadvance=42    page=0  chnl=15
char id=200  x=196   y=0     width=35    height=52    xoffset=2     yoffset=0     xadvance=39    page=0  chnl=15
char id=201  x=232   y=0     width=35    height=52    xoffset=2     yoffset=0     xadvance=39    page=0  chnl=15
char id=202  x=78    y=53    width=35    height=50    xoffset=2     yoffset=2     xadvance=39    page=0  chnl=15
char id=203  x=232   y=53    width=35    height=49    xoffset=2     yoffset=3     xadvance=39    page=0  chnl=15
char id=204  x=297   y=0     width=7     height=52    xoffset=1     yoffset=0     xadvance=11    page=0  chnl=15
char id=205  x=289   y=0     width=7     height=52    xoffset=1     yoffset=0     xadvance=11    page=0  chnl=15
char id=206  x=500   y=0     width=11    height=50    xoffset=-1    yoffset=2     xadvance=11    page=0  chnl=15
char id=207  x=268   y=53    width=15    height=49    xoffset=-2    yoffset=3     xadvance=11    page=0  chnl=15
char id=209  x=383   y=0     width=38    height=51    xoffset=2     yoffset=1     xadvance=42    page=0  chnl=15
char id=210  x=40    y=0     width=38    height=52    xoffset=2     yoffset=0     xadvance=42    page=0  chnl=15
char id=211  x=118   y=0     width=38    height=52    xoffset=2     yoffset=0     xadvance=42    page=0  chnl=15
char id=212  x=39    y=53    width=38    height=50    xoffset=2     yoffset=2     xadvance=42    page=0  chnl=15
char id=213  x=305   y=0     width=38    height=51    xoffset=2     yoffset=1     xadvance=42    page=0  chnl=15
char id=214  x=193   y=53    width=38    height=49    xoffset=2     yoffset=3     xadvance=42    page=0  chnl=15
char id=217  x=79    y=0     width=38    height=52    xoffset=2     yoffset=0     xadvance=42    page=0  chnl=15
char id=218  x=157   y=0     width=38    height=52    xoffset=2     yoffset=0     xadvance=42    page=0  chnl=15
char id=219  x=422   y=0     width=38    height=50    xoffset=2     yoffset=2     xadvance=42    page=0  chnl=15
char id=220  x=154   y=53    width=38    height=49    xoffset=2     yoffset=3     xadvance=42    page=0  chnl=15
char id=221  x=0     y=0     width=39    height=52    xoffset=0     yoffset=0     xadvance=41    page=0  chnl=15
char id=224  x=396   y=52    width=32    height=46    xoffset=2     yoffset=6     xadvance=37    page=0  chnl=15
char id=225  x=462   y=51    width=32    height=46    xoffset=2     yoffset=6     xadvance=37    page=0  chnl=15
char id=226  x=129   y=103   width=32    height=45    xoffset=2     yoffset=7     xadvance=37    page=0  chnl=15
char id=227  x=429   y=51    width=32    height=46    xoffset=2     yoffset=6     xadvance=37    page=0  chnl=15
char id=228  x=233   y=103   width=32    height=43    xoffset=2     yoffset=9     xadvance=37    page=0  chnl=15
char id=229  x=96    y=104   width=32    height=45    xoffset=2     yoffset=7     xadvance=37    page=0  chnl=15
char id=230  x=0     y=306   width=57    height=30    xoffset=2     yoffset=22    xadvance=60    page=0  chnl=15
char id=231  x=479   y=177   width=31    height=37    xoffset=2     yoffset=22    xadvance=35    page=0  chnl=15
char id=241  x=363   y=52    width=32    height=46    xoffset=2     yoffset=6     xadvance=36    page=0  chnl=15
char id=242  x=0     y=104   width=31    height=46    xoffset=2     yoffset=6     xadvance=35    page=0  chnl=15
char id=243  x=32    y=104   width=31    height=46    xoffset=2     yoffset=6     xadvance=35    page=0  chnl=15
char id=244  x=162   y=103   width=31    height=45    xoffset=2     yoffset=7     xadvance=35    page=0  chnl=15
char id=245  x=64    y=104   width=31    height=46    xoffset=2     yoffset=6     xadvance=35    page=0  chnl=15
char id=249  x=330   y=52    width=32    height=46    xoffset=2     yoffset=6     xadvance=35    page=0  chnl=15
