info face="VCR OSD Mono" size=32 bold=0 italic=0 charset="ANSI" unicode=0 stretchH=100 smooth=1 aa=1 padding=0,0,0,0 spacing=1,1 outline=0
common lineHeight=32 base=29 scaleW=512 scaleH=512 pages=1 packed=0 alphaChnl=1 redChnl=0 greenChnl=0 blueChnl=0
page id=0 file="vcr_512_0.png"
chars count=168
char id=32   x=131   y=49    width=3     height=1     xoffset=-1    yoffset=31    xadvance=19    page=0  chnl=15
char id=33   x=272   y=72    width=4     height=22    xoffset=6     yoffset=5     xadvance=19    page=0  chnl=15
char id=34   x=0     y=116   width=15    height=6     xoffset=2     yoffset=5     xadvance=19    page=0  chnl=15
char id=35   x=295   y=72    width=17    height=21    xoffset=1     yoffset=5     xadvance=19    page=0  chnl=15
char id=36   x=168   y=26    width=17    height=22    xoffset=1     yoffset=5     xadvance=19    page=0  chnl=15
char id=37   x=186   y=26    width=17    height=22    xoffset=1     yoffset=5     xadvance=19    page=0  chnl=15
char id=38   x=108   y=0     width=17    height=25    xoffset=1     yoffset=2     xadvance=19    page=0  chnl=15
char id=39   x=25    y=116   width=6     height=6     xoffset=6     yoffset=5     xadvance=19    page=0  chnl=15
char id=40   x=24    y=26    width=10    height=25    xoffset=4     yoffset=2     xadvance=19    page=0  chnl=15
char id=41   x=35    y=26    width=9     height=25    xoffset=6     yoffset=2     xadvance=19    page=0  chnl=15
char id=42   x=270   y=95    width=15    height=15    xoffset=2     yoffset=3     xadvance=19    page=0  chnl=15
char id=43   x=252   y=95    width=17    height=16    xoffset=1     yoffset=8     xadvance=19    page=0  chnl=15
char id=44   x=16    y=116   width=8     height=6     xoffset=4     yoffset=21    xadvance=19    page=0  chnl=15
char id=45   x=69    y=115   width=15    height=4     xoffset=2     yoffset=14    xadvance=19    page=0  chnl=15
char id=46   x=137   y=115   width=4     height=3     xoffset=6     yoffset=24    xadvance=19    page=0  chnl=15
char id=47   x=204   y=26    width=17    height=22    xoffset=1     yoffset=5     xadvance=19    page=0  chnl=15
char id=48   x=222   y=26    width=17    height=22    xoffset=1     yoffset=5     xadvance=19    page=0  chnl=15
char id=49   x=254   y=72    width=11    height=22    xoffset=4     yoffset=5     xadvance=19    page=0  chnl=15
char id=50   x=240   y=26    width=17    height=22    xoffset=1     yoffset=5     xadvance=19    page=0  chnl=15
char id=51   x=258   y=26    width=17    height=22    xoffset=1     yoffset=5     xadvance=19    page=0  chnl=15
char id=52   x=276   y=26    width=17    height=22    xoffset=1     yoffset=5     xadvance=19    page=0  chnl=15
char id=53   x=150   y=26    width=17    height=22    xoffset=1     yoffset=5     xadvance=19    page=0  chnl=15
char id=54   x=312   y=26    width=17    height=22    xoffset=1     yoffset=5     xadvance=19    page=0  chnl=15
char id=55   x=330   y=26    width=17    height=22    xoffset=1     yoffset=5     xadvance=19    page=0  chnl=15
char id=56   x=348   y=26    width=17    height=22    xoffset=1     yoffset=5     xadvance=19    page=0  chnl=15
char id=57   x=366   y=26    width=17    height=22    xoffset=1     yoffset=5     xadvance=19    page=0  chnl=15
char id=58   x=506   y=72    width=4     height=16    xoffset=6     yoffset=8     xadvance=19    page=0  chnl=15
char id=59   x=433   y=72    width=8     height=19    xoffset=2     yoffset=8     xadvance=19    page=0  chnl=15
char id=60   x=87    y=26    width=15    height=24    xoffset=2     yoffset=3     xadvance=19    page=0  chnl=15
char id=61   x=408   y=92    width=17    height=10    xoffset=1     yoffset=11    xadvance=19    page=0  chnl=15
char id=62   x=103   y=26    width=15    height=24    xoffset=2     yoffset=3     xadvance=19    page=0  chnl=15
char id=63   x=384   y=26    width=17    height=22    xoffset=1     yoffset=5     xadvance=19    page=0  chnl=15
char id=64   x=325   y=72    width=17    height=20    xoffset=1     yoffset=6     xadvance=19    page=0  chnl=15
char id=65   x=402   y=26    width=17    height=22    xoffset=1     yoffset=5     xadvance=19    page=0  chnl=15
char id=66   x=420   y=26    width=17    height=22    xoffset=1     yoffset=5     xadvance=19    page=0  chnl=15
char id=67   x=438   y=26    width=17    height=22    xoffset=1     yoffset=5     xadvance=19    page=0  chnl=15
char id=68   x=456   y=26    width=17    height=22    xoffset=1     yoffset=5     xadvance=19    page=0  chnl=15
char id=69   x=474   y=26    width=17    height=22    xoffset=1     yoffset=5     xadvance=19    page=0  chnl=15
char id=70   x=492   y=26    width=17    height=22    xoffset=1     yoffset=5     xadvance=19    page=0  chnl=15
char id=71   x=0     y=52    width=17    height=22    xoffset=1     yoffset=5     xadvance=19    page=0  chnl=15
char id=72   x=18    y=52    width=17    height=22    xoffset=1     yoffset=5     xadvance=19    page=0  chnl=15
char id=73   x=242   y=72    width=11    height=22    xoffset=4     yoffset=5     xadvance=19    page=0  chnl=15
char id=74   x=294   y=26    width=17    height=22    xoffset=1     yoffset=5     xadvance=19    page=0  chnl=15
char id=75   x=36    y=52    width=17    height=22    xoffset=1     yoffset=5     xadvance=19    page=0  chnl=15
char id=76   x=54    y=51    width=17    height=22    xoffset=1     yoffset=5     xadvance=19    page=0  chnl=15
char id=77   x=131   y=26    width=18    height=22    xoffset=1     yoffset=5     xadvance=19    page=0  chnl=15
char id=78   x=72    y=51    width=17    height=22    xoffset=1     yoffset=5     xadvance=19    page=0  chnl=15
char id=79   x=90    y=51    width=17    height=22    xoffset=1     yoffset=5     xadvance=19    page=0  chnl=15
char id=80   x=108   y=51    width=17    height=22    xoffset=1     yoffset=5     xadvance=19    page=0  chnl=15
char id=81   x=126   y=51    width=17    height=22    xoffset=1     yoffset=5     xadvance=19    page=0  chnl=15
char id=82   x=144   y=49    width=17    height=22    xoffset=1     yoffset=5     xadvance=19    page=0  chnl=15
char id=83   x=162   y=49    width=17    height=22    xoffset=1     yoffset=5     xadvance=19    page=0  chnl=15
char id=84   x=180   y=49    width=17    height=22    xoffset=1     yoffset=5     xadvance=19    page=0  chnl=15
char id=85   x=198   y=49    width=17    height=22    xoffset=1     yoffset=5     xadvance=19    page=0  chnl=15
char id=86   x=216   y=49    width=17    height=22    xoffset=1     yoffset=5     xadvance=19    page=0  chnl=15
char id=87   x=234   y=49    width=17    height=22    xoffset=1     yoffset=5     xadvance=19    page=0  chnl=15
char id=88   x=252   y=49    width=17    height=22    xoffset=1     yoffset=5     xadvance=19    page=0  chnl=15
char id=89   x=270   y=49    width=17    height=22    xoffset=1     yoffset=5     xadvance=19    page=0  chnl=15
char id=90   x=288   y=49    width=17    height=22    xoffset=1     yoffset=5     xadvance=19    page=0  chnl=15
char id=91   x=493   y=0     width=11    height=25    xoffset=6     yoffset=2     xadvance=19    page=0  chnl=15
char id=92   x=306   y=49    width=17    height=22    xoffset=1     yoffset=5     xadvance=19    page=0  chnl=15
char id=93   x=432   y=0     width=12    height=25    xoffset=2     yoffset=2     xadvance=19    page=0  chnl=15
char id=94   x=472   y=91    width=17    height=8     xoffset=1     yoffset=5     xadvance=19    page=0  chnl=15
char id=95   x=85    y=115   width=21    height=3     xoffset=-1    yoffset=26    xadvance=19    page=0  chnl=15
char id=96   x=32    y=116   width=10    height=5     xoffset=4     yoffset=5     xadvance=19    page=0  chnl=15
char id=97   x=361   y=72    width=17    height=19    xoffset=1     yoffset=8     xadvance=19    page=0  chnl=15
char id=98   x=324   y=49    width=17    height=22    xoffset=1     yoffset=5     xadvance=19    page=0  chnl=15
char id=99   x=72    y=97    width=17    height=17    xoffset=1     yoffset=10    xadvance=19    page=0  chnl=15
char id=100  x=342   y=49    width=17    height=22    xoffset=1     yoffset=5     xadvance=19    page=0  chnl=15
char id=101  x=36    y=98    width=17    height=17    xoffset=1     yoffset=10    xadvance=19    page=0  chnl=15
char id=102  x=214   y=72    width=15    height=22    xoffset=2     yoffset=5     xadvance=19    page=0  chnl=15
char id=103  x=379   y=72    width=17    height=19    xoffset=1     yoffset=8     xadvance=19    page=0  chnl=15
char id=104  x=360   y=49    width=17    height=22    xoffset=1     yoffset=5     xadvance=19    page=0  chnl=15
char id=105  x=313   y=72    width=11    height=21    xoffset=4     yoffset=6     xadvance=19    page=0  chnl=15
char id=106  x=119   y=26    width=11    height=24    xoffset=4     yoffset=3     xadvance=19    page=0  chnl=15
char id=107  x=378   y=49    width=17    height=22    xoffset=1     yoffset=5     xadvance=19    page=0  chnl=15
char id=108  x=266   y=72    width=5     height=22    xoffset=7     yoffset=5     xadvance=19    page=0  chnl=15
char id=109  x=0     y=98    width=17    height=17    xoffset=1     yoffset=10    xadvance=19    page=0  chnl=15
char id=110  x=488   y=72    width=17    height=17    xoffset=1     yoffset=10    xadvance=19    page=0  chnl=15
char id=111  x=198   y=95    width=17    height=17    xoffset=1     yoffset=10    xadvance=19    page=0  chnl=15
char id=112  x=343   y=72    width=17    height=19    xoffset=1     yoffset=8     xadvance=19    page=0  chnl=15
char id=113  x=415   y=72    width=17    height=19    xoffset=1     yoffset=8     xadvance=19    page=0  chnl=15
char id=114  x=144   y=95    width=17    height=17    xoffset=1     yoffset=10    xadvance=19    page=0  chnl=15
char id=115  x=126   y=97    width=17    height=17    xoffset=1     yoffset=10    xadvance=19    page=0  chnl=15
char id=116  x=230   y=72    width=11    height=22    xoffset=4     yoffset=5     xadvance=19    page=0  chnl=15
char id=117  x=90    y=97    width=17    height=17    xoffset=1     yoffset=10    xadvance=19    page=0  chnl=15
char id=118  x=18    y=98    width=17    height=17    xoffset=1     yoffset=10    xadvance=19    page=0  chnl=15
char id=119  x=54    y=97    width=17    height=17    xoffset=1     yoffset=10    xadvance=19    page=0  chnl=15
char id=120  x=162   y=95    width=17    height=17    xoffset=1     yoffset=10    xadvance=19    page=0  chnl=15
char id=121  x=397   y=72    width=17    height=19    xoffset=1     yoffset=8     xadvance=19    page=0  chnl=15
char id=122  x=108   y=97    width=17    height=17    xoffset=1     yoffset=10    xadvance=19    page=0  chnl=15
char id=123  x=469   y=0     width=11    height=25    xoffset=4     yoffset=2     xadvance=19    page=0  chnl=15
char id=124  x=45    y=26    width=5     height=25    xoffset=7     yoffset=2     xadvance=19    page=0  chnl=15
char id=125  x=457   y=0     width=11    height=25    xoffset=4     yoffset=2     xadvance=19    page=0  chnl=15
char id=126  x=490   y=90    width=17    height=6     xoffset=1     yoffset=13    xadvance=19    page=0  chnl=15
char id=133  x=107   y=115   width=17    height=3     xoffset=1     yoffset=24    xadvance=19    page=0  chnl=15
char id=139  x=333   y=93    width=10    height=14    xoffset=2     yoffset=13    xadvance=19    page=0  chnl=15
char id=145  x=458   y=91    width=6     height=10    xoffset=9     yoffset=5     xadvance=19    page=0  chnl=15
char id=146  x=465   y=91    width=6     height=10    xoffset=4     yoffset=5     xadvance=19    page=0  chnl=15
char id=147  x=442   y=91    width=15    height=10    xoffset=2     yoffset=5     xadvance=19    page=0  chnl=15
char id=148  x=426   y=92    width=15    height=10    xoffset=2     yoffset=5     xadvance=19    page=0  chnl=15
char id=153  x=390   y=92    width=17    height=10    xoffset=1     yoffset=5     xadvance=19    page=0  chnl=15
char id=155  x=322   y=94    width=10    height=14    xoffset=4     yoffset=13    xadvance=19    page=0  chnl=15
char id=161  x=504   y=49    width=5     height=22    xoffset=9     yoffset=5     xadvance=19    page=0  chnl=15
char id=162  x=414   y=49    width=17    height=22    xoffset=1     yoffset=5     xadvance=19    page=0  chnl=15
char id=163  x=360   y=0     width=17    height=25    xoffset=1     yoffset=2     xadvance=19    page=0  chnl=15
char id=165  x=198   y=72    width=15    height=22    xoffset=2     yoffset=5     xadvance=19    page=0  chnl=15
char id=166  x=505   y=0     width=5     height=25    xoffset=7     yoffset=2     xadvance=19    page=0  chnl=15
char id=168  x=125   y=115   width=11    height=3     xoffset=4     yoffset=5     xadvance=19    page=0  chnl=15
char id=169  x=442   y=72    width=17    height=18    xoffset=1     yoffset=6     xadvance=19    page=0  chnl=15
char id=170  x=474   y=72    width=13    height=18    xoffset=2     yoffset=5     xadvance=19    page=0  chnl=15
char id=171  x=304   y=94    width=17    height=14    xoffset=1     yoffset=10    xadvance=19    page=0  chnl=15
char id=173  x=53    y=116   width=15    height=4     xoffset=2     yoffset=14    xadvance=19    page=0  chnl=15
char id=174  x=234   y=95    width=17    height=16    xoffset=1     yoffset=5     xadvance=19    page=0  chnl=15
char id=176  x=344   y=92    width=14    height=13    xoffset=1     yoffset=5     xadvance=19    page=0  chnl=15
char id=178  x=359   y=92    width=10    height=11    xoffset=4     yoffset=2     xadvance=19    page=0  chnl=15
char id=179  x=370   y=92    width=10    height=11    xoffset=4     yoffset=2     xadvance=19    page=0  chnl=15
char id=180  x=43    y=116   width=9     height=5     xoffset=6     yoffset=5     xadvance=19    page=0  chnl=15
char id=185  x=381   y=92    width=8     height=11    xoffset=6     yoffset=2     xadvance=19    page=0  chnl=15
char id=186  x=460   y=72    width=13    height=18    xoffset=2     yoffset=5     xadvance=19    page=0  chnl=15
char id=187  x=286   y=94    width=17    height=14    xoffset=1     yoffset=10    xadvance=19    page=0  chnl=15
char id=188  x=270   y=0     width=17    height=25    xoffset=1     yoffset=2     xadvance=19    page=0  chnl=15
char id=189  x=180   y=0     width=17    height=25    xoffset=1     yoffset=2     xadvance=19    page=0  chnl=15
char id=190  x=162   y=0     width=17    height=25    xoffset=1     yoffset=2     xadvance=19    page=0  chnl=15
char id=191  x=432   y=49    width=17    height=22    xoffset=1     yoffset=5     xadvance=19    page=0  chnl=15
char id=194  x=144   y=0     width=17    height=25    xoffset=1     yoffset=2     xadvance=19    page=0  chnl=15
char id=195  x=414   y=0     width=17    height=25    xoffset=1     yoffset=2     xadvance=19    page=0  chnl=15
char id=196  x=396   y=0     width=17    height=25    xoffset=1     yoffset=2     xadvance=19    page=0  chnl=15
char id=197  x=288   y=0     width=17    height=25    xoffset=1     yoffset=2     xadvance=19    page=0  chnl=15
char id=198  x=69    y=26    width=17    height=24    xoffset=1     yoffset=3     xadvance=19    page=0  chnl=15
char id=199  x=450   y=49    width=17    height=22    xoffset=1     yoffset=5     xadvance=19    page=0  chnl=15
char id=200  x=324   y=0     width=17    height=25    xoffset=1     yoffset=2     xadvance=19    page=0  chnl=15
char id=201  x=0     y=0     width=17    height=25    xoffset=1     yoffset=2     xadvance=19    page=0  chnl=15
char id=202  x=72    y=0     width=17    height=25    xoffset=1     yoffset=2     xadvance=19    page=0  chnl=15
char id=203  x=342   y=0     width=17    height=25    xoffset=1     yoffset=2     xadvance=19    page=0  chnl=15
char id=204  x=445   y=0     width=11    height=25    xoffset=4     yoffset=2     xadvance=19    page=0  chnl=15
char id=205  x=12    y=26    width=11    height=25    xoffset=4     yoffset=2     xadvance=19    page=0  chnl=15
char id=206  x=481   y=0     width=11    height=25    xoffset=4     yoffset=2     xadvance=19    page=0  chnl=15
char id=207  x=0     y=26    width=11    height=25    xoffset=4     yoffset=2     xadvance=19    page=0  chnl=15
char id=208  x=468   y=49    width=17    height=22    xoffset=1     yoffset=5     xadvance=19    page=0  chnl=15
char id=209  x=18    y=0     width=17    height=25    xoffset=1     yoffset=2     xadvance=19    page=0  chnl=15
char id=210  x=378   y=0     width=17    height=25    xoffset=1     yoffset=2     xadvance=19    page=0  chnl=15
char id=211  x=306   y=0     width=17    height=25    xoffset=1     yoffset=2     xadvance=19    page=0  chnl=15
char id=212  x=252   y=0     width=17    height=25    xoffset=1     yoffset=2     xadvance=19    page=0  chnl=15
char id=213  x=234   y=0     width=17    height=25    xoffset=1     yoffset=2     xadvance=19    page=0  chnl=15
char id=214  x=216   y=0     width=17    height=25    xoffset=1     yoffset=2     xadvance=19    page=0  chnl=15
char id=216  x=396   y=49    width=17    height=22    xoffset=1     yoffset=5     xadvance=19    page=0  chnl=15
char id=217  x=198   y=0     width=17    height=25    xoffset=1     yoffset=2     xadvance=19    page=0  chnl=15
char id=218  x=90    y=0     width=17    height=25    xoffset=1     yoffset=2     xadvance=19    page=0  chnl=15
char id=219  x=126   y=0     width=17    height=25    xoffset=1     yoffset=2     xadvance=19    page=0  chnl=15
char id=220  x=54    y=0     width=17    height=25    xoffset=1     yoffset=2     xadvance=19    page=0  chnl=15
char id=221  x=36    y=0     width=17    height=25    xoffset=1     yoffset=2     xadvance=19    page=0  chnl=15
char id=224  x=486   y=49    width=17    height=22    xoffset=1     yoffset=5     xadvance=19    page=0  chnl=15
char id=225  x=0     y=75    width=17    height=22    xoffset=1     yoffset=5     xadvance=19    page=0  chnl=15
char id=226  x=18    y=75    width=17    height=22    xoffset=1     yoffset=5     xadvance=19    page=0  chnl=15
char id=227  x=36    y=75    width=17    height=22    xoffset=1     yoffset=5     xadvance=19    page=0  chnl=15
char id=228  x=54    y=74    width=17    height=22    xoffset=1     yoffset=5     xadvance=19    page=0  chnl=15
char id=229  x=72    y=74    width=17    height=22    xoffset=1     yoffset=5     xadvance=19    page=0  chnl=15
char id=230  x=180   y=95    width=17    height=17    xoffset=1     yoffset=10    xadvance=19    page=0  chnl=15
char id=231  x=277   y=72    width=17    height=21    xoffset=1     yoffset=6     xadvance=19    page=0  chnl=15
char id=240  x=51    y=26    width=17    height=24    xoffset=1     yoffset=3     xadvance=19    page=0  chnl=15
char id=241  x=90    y=74    width=17    height=22    xoffset=1     yoffset=5     xadvance=19    page=0  chnl=15
char id=242  x=108   y=74    width=17    height=22    xoffset=1     yoffset=5     xadvance=19    page=0  chnl=15
char id=243  x=126   y=74    width=17    height=22    xoffset=1     yoffset=5     xadvance=19    page=0  chnl=15
char id=244  x=144   y=72    width=17    height=22    xoffset=1     yoffset=5     xadvance=19    page=0  chnl=15
char id=245  x=162   y=72    width=17    height=22    xoffset=1     yoffset=5     xadvance=19    page=0  chnl=15
char id=248  x=216   y=95    width=17    height=17    xoffset=1     yoffset=10    xadvance=19    page=0  chnl=15
char id=249  x=180   y=72    width=17    height=22    xoffset=1     yoffset=5     xadvance=19    page=0  chnl=15
